@startuml
skinparam shadowing false
skinparam classBorderThickness .5
skinparam monochrome true
skinparam defaultFontName "Verdana"
skinparam defaultFontSize 14
skinparam sequence {
   ParticipantBackgroundColor transparent
   ParticipantFontSize 16
   ActorFontSize 16
}

autonumber 1

Participant "ctrl:AddMemberTo\nGroupController"
Participant "srv:AddMemberTo\nGroupService"
Participant "AddMember\nRequestAssembler"
Participant "requestDTO:\nAddMemberRequestDTO"
Participant "groupRepo:\nGroupRepository"
Participant "Group\nAssembler"
Participant "GroupDomain\nDataAssembler"
Participant "GroupJPA\nRepository"
Participant "groupData:\nGroupData"
Participant "group:\nGroup"
Participant "saved\nGroupData"
Participant "groupDTO:\nGroupDTO"
Participant "AddMemberResponse\nDTOAssembler"
Participant "groupRespDTO:\nGroupResponseDTO"

autonumber 1.1
activate "ctrl:AddMemberTo\nGroupController" #white
"ctrl:AddMemberTo\nGroupController" -> "AddMember\nRequestAssembler" : addMemberMapToDTO\n(info.getGroupDescription(),info.getPersonEmail())
activate "AddMember\nRequestAssembler" #white

autonumber 1.1.1
create "requestDTO:\nAddMemberRequestDTO"
"AddMember\nRequestAssembler" -> "requestDTO:\nAddMemberRequestDTO" : create
autonumber 1.2
"AddMember\nRequestAssembler" --> "ctrl:AddMemberTo\nGroupController" : requestDTO
deactivate "AddMember\nRequestAssembler"

autonumber 2.1
"ctrl:AddMemberTo\nGroupController" -> "srv:AddMemberTo\nGroupService" : addMember(requestDTO)
autonumber 2.2
activate "srv:AddMemberTo\nGroupService" #white

"srv:AddMemberTo\nGroupService" -> "groupRepo:\nGroupRepository" : findByID(requestDTO.getGroupID())
activate "groupRepo:\nGroupRepository" #white

autonumber 2.2.1
"groupRepo:\nGroupRepository"-> "GroupJPA\nRepository": findByID (id)
activate "GroupJPA\nRepository"
autonumber 1.2.1.1
create "groupData:\nGroupData"
"GroupJPA\nRepository" -> "groupData:\nGroupData"  : create
autonumber 1.2.2
"GroupJPA\nRepository" --> "groupRepo:\nGroupRepository": groupData
deactivate "GroupJPA\nRepository"
"groupRepo:\nGroupRepository" -> "GroupDomain\nDataAssembler": toDomain(groupData)
autonumber 1.2.3.1
activate "GroupDomain\nDataAssembler"
"GroupDomain\nDataAssembler" -> "group:\nGroup" : create
autonumber 1.2.4
"GroupDomain\nDataAssembler" --> "groupRepo:\nGroupRepository" : group
deactivate "GroupDomain\nDataAssembler"
autonumber 2.3
"groupRepo:\nGroupRepository" --> "srv:AddMemberTo\nGroupService":group
autonumber 2.4
deactivate "groupRepo:\nGroupRepository"

"srv:AddMemberTo\nGroupService"-> "group:\nGroup": isMemberID(requestDTO.getGroupID())

"srv:AddMemberTo\nGroupService" -> "groupRepo:\nGroupRepository": save(group)
activate "groupRepo:\nGroupRepository" #white

autonumber 2.5.1
"groupRepo:\nGroupRepository" -> "GroupDomain\nDataAssembler": toData(group)
autonumber 2.5.1.1
activate "GroupDomain\nDataAssembler"
"GroupDomain\nDataAssembler" -> "groupData:\nGroupData" : create
autonumber 2.5.2
"GroupDomain\nDataAssembler"--> "groupRepo:\nGroupRepository": groupData
deactivate "GroupDomain\nDataAssembler"
autonumber 2.5.3
"groupRepo:\nGroupRepository"-> "GroupJPA\nRepository":save (groupData)
activate "GroupJPA\nRepository"
create "saved\nGroupData"
autonumber 2.5.3.1
"GroupJPA\nRepository" -> "saved\nGroupData" : save (groupData)
autonumber 2.5.4
"GroupJPA\nRepository" --> "groupRepo:\nGroupRepository" : savedGroupData
deactivate "GroupJPA\nRepository"
"groupRepo:\nGroupRepository" -> "GroupDomain\nDataAssembler" : toDomain(savedGroupData)
autonumber 2.5.5.1
activate "GroupDomain\nDataAssembler"
"GroupDomain\nDataAssembler" -> "group:\nGroup" : create
autonumber 2.5.6
"GroupDomain\nDataAssembler" --> "groupRepo:\nGroupRepository" : group
deactivate "GroupDomain\nDataAssembler"

autonumber 2.6
"groupRepo:\nGroupRepository" --> "srv:AddMemberTo\nGroupService" : group
deactivate "groupRepo:\nGroupRepository"
"srv:AddMemberTo\nGroupService" -> "Group\nAssembler" : mapToDTO(group)
activate "Group\nAssembler" #white

autonumber 2.7.1
create "groupDTO:\nGroupDTO"
"Group\nAssembler" -> "groupDTO:\nGroupDTO" : create

autonumber 2.7
autonumber 2.8
"Group\nAssembler" --> "srv:AddMemberTo\nGroupService" : groupDTO
deactivate "Group\nAssembler"
"srv:AddMemberTo\nGroupService" --> "ctrl:AddMemberTo\nGroupController" : groupDTO
deactivate "srv:AddMemberTo\nGroupService"

autonumber 3.1
"ctrl:AddMemberTo\nGroupController" -> "AddMemberResponse\nDTOAssembler" :mapToDTO(groupDTO)
activate "AddMemberResponse\nDTOAssembler" #white
autonumber 3.1.1
create "groupRespDTO:\nGroupResponseDTO"
"AddMemberResponse\nDTOAssembler" -> "groupRespDTO:\nGroupResponseDTO" : create
autonumber 3.2
"AddMemberResponse\nDTOAssembler" --> "ctrl:AddMemberTo\nGroupController" : groupRespDTO
deactivate "AddMemberResponse\nDTOAssembler"
deactivate "ctrl:AddMemberTo\nGroupController"
@enduml