@startuml
skinparam shadowing false
skinparam classBorderThickness .5
skinparam monochrome true
skinparam defaultFontName "Verdana"
skinparam defaultFontSize 14
skinparam sequence {
   ParticipantFontSize 16
   ActorFontSize 16
}

autonumber

activate IntegrationTest #white
"IntegrationTest" -> "SpingApplication": GET\n /groups?type=families
activate "SpingApplication" #white
  SpingApplication -> "ctrl:GetFamiliesRestController" : getFamilies()
  activate "ctrl:GetFamiliesRestController" #White
  "ctrl:GetFamiliesRestController" -> "srv:GetFamiliesService" : getFamilies()
  activate "srv:GetFamiliesService" #White
  "srv:GetFamiliesService" -> "gR:GroupRepository" : findAll()
  activate "gR:GroupRepository" #white
  "gR:GroupRepository" --> "srv:GetFamiliesService" : groups
  deactivate "gR:GroupRepository"
  loop for each group in groups
  "srv:GetFamiliesService" -> "srv:GetFamiliesService": getFamilies(group)
  activate "srv:GetFamiliesService" #white
  "srv:GetFamiliesService" -> "group:Group": getMembers()
  activate "group:Group" #white
  "group:Group" --> "srv:GetFamiliesService" :  members
  deactivate "group:Group" #white
  alt if members.size is equal to or greater than 3
  loop for each personID in members
  "srv:GetFamiliesService" -> "pR:PersonRepository": findbyID(personID)
  activate "pR:PersonRepository" #white
  "pR:PersonRepository" -->"srv:GetFamiliesService" :  member
  deactivate "pR:PersonRepository"
  "srv:GetFamiliesService" -> "member:Person" : member.getFatherID()
  activate "member:Person" #white
  "member:Person" --> "srv:GetFamiliesService" : fatherID
  deactivate "member:Person" #white
  alt if fatherID is contained in membersID
  "srv:GetFamiliesService" -> "group:Group" : isMember( fatherID )
  activate "group:Group" #white
  "group:Group" --> "srv:GetFamiliesService" : isFather
  deactivate "group:Group" #white
  end
  "srv:GetFamiliesService" -> "member:Person" : member.getMotherID()
  activate "member:Person" #white
  "member:Person" --> "srv:GetFamiliesService" : motherID
  deactivate "member:Person" #white
  alt if motherID is contained in membersID
  "srv:GetFamiliesService" -> "group:Group" : isMember( MotherID )
  activate "group:Group" #white
  "group:Group" --> "srv:GetFamiliesService" : isMother
  deactivate "group:Group" #white
  end
  create "familyDTO:GroupDTO"
  "srv:GetFamiliesService" -> "familyDTO:GroupDTO" : families.add(mapToDTO(family))
  end
  end
  end
  "srv:GetFamiliesService" --> "ctrl:GetFamiliesRestController" : families
  deactivate "srv:GetFamiliesService" #white
    loop for each family in families
  create ":familyResponseDTO"
    "ctrl:GetFamiliesRestController" -> ":familyResponseDTO" : familyResponseDTO = mapToDTO(family)
    "ctrl:GetFamiliesRestController" -> "ctrl:GetFamiliesRestController" : familiesDTOList.add(familyResponseDTO)
    end
  "ctrl:GetFamiliesRestController" --> "SpingApplication" : HttpResponse
  deactivate "ctrl:GetFamiliesRestController" #white
  "SpingApplication" --> IntegrationTest : HttpResponse
  deactivate IntegrationTest
@enduml

